Simulação05/tests/dump.vcd
$date
	Fri Oct  3 19:24:17 2025
$end
$version
	Icarus Verilog
$end
$timescale
	1s
$end
$scope module testbench $end
$var wire 32 ! writedata [31:0] $end
$var wire 32 " readdata [31:0] $end
$var wire 32 # pc [31:0] $end
$var wire 1 $ memwrite $end
$var wire 32 % instr [31:0] $end
$var wire 32 & addr [31:0] $end
$var reg 1 ' clk $end
$var reg 1 ( reset $end
$scope module cpu $end
$var wire 32 ) aluIn1 [31:0] $end
$var wire 1 ' clk $end
$var wire 1 $ memwrite $end
$var wire 1 ( reset $end
$var wire 1 * writeBackEn $end
$var wire 32 + writedata [31:0] $end
$var wire 32 , writeBackData [31:0] $end
$var wire 32 - shifter_in [31:0] $end
$var wire 32 . shifter [31:0] $end
$var wire 5 / shamt [4:0] $end
$var wire 5 0 rs2Id [4:0] $end
$var wire 32 1 rs2 [31:0] $end
$var wire 5 2 rs1Id [4:0] $end
$var wire 32 3 rs1 [31:0] $end
$var wire 32 4 readdata [31:0] $end
$var wire 5 5 rdId [4:0] $end
$var wire 32 6 leftshift [31:0] $end
$var wire 1 7 isStore $end
$var wire 1 8 isSYSTEM $end
$var wire 1 9 isLoad $end
$var wire 1 : isLUI $end
$var wire 1 ; isJALR $end
$var wire 1 < isJAL $end
$var wire 1 = isBranch $end
$var wire 1 > isAUIPC $end
$var wire 1 ? isALUreg $end
$var wire 1 @ isALUimm $end
$var wire 32 A instr [31:0] $end
$var wire 7 B funct7 [6:0] $end
$var wire 3 C funct3 [2:0] $end
$var wire 32 D aluPlus [31:0] $end
$var wire 33 E aluMinus [32:0] $end
$var wire 32 F aluIn2 [31:0] $end
$var wire 32 G addr [31:0] $end
$var wire 32 H Uimm [31:0] $end
$var wire 32 I Simm [31:0] $end
$var wire 32 J PCplusImm [31:0] $end
$var wire 32 K PCplus4 [31:0] $end
$var wire 1 L LTU $end
$var wire 1 M LT $end
$var wire 32 N Jimm [31:0] $end
$var wire 32 O Iimm [31:0] $end
$var wire 1 P EQ $end
$var wire 32 Q Bimm [31:0] $end
$var reg 32 R aluOut [31:0] $end
$var reg 32 S pc [31:0] $end
$scope function flip32 $end
$var reg 32 T x [31:0] $end
$upscope $end
$upscope $end
$scope module data_mem $end
$var wire 32 U a [31:0] $end
$var wire 1 ' clk $end
$var wire 32 V rd [31:0] $end
$var wire 32 W wd [31:0] $end
$var wire 1 $ we $end
$var parameter 128 X FILENAME $end
$upscope $end
$scope module instr_mem $end
$var wire 32 Y a [31:0] $end
$var wire 1 ' clk $end
$var wire 32 Z rd [31:0] $end
$var wire 32 [ wd [31:0] $end
$var wire 1 \ we $end
$var parameter 128 ] FILENAME $end
$upscope $end
$upscope $end
$enddefinitions $end
$comment Show the parameter values. $end
$dumpall
b101110001011100010111101100110011010010110001001101111010111110110001101101111011001000110010100101110011010000110010101111000 ]
b101110001011100010111101100110011010010110001001101111010111110110010001100001011101000110000100101110011010000110010101111000 X
$end
#0
$dumpvars
z\
bz [
b10000000000010000010011 Z
b0 Y
bx W
b1 V
b100 U
b0 T
b0 S
b100 R
b1000 Q
0P
b100 O
b100 N
1M
1L
b100 K
b100 J
b1000 I
b10000000000000000000000 H
b100 G
b100 F
b111111111111111111111111111111100 E
b100 D
b0 C
b0 B
b10000000000010000010011 A
1@
0?
0>
0=
0<
0;
0:
09
08
07
b0 6
b1000 5
b1 4
b0 3
b0 2
bx 1
b100 0
b100 /
b0 .
b0 -
b100 ,
bx +
1*
b0 )
1(
1'
b100 &
b10000000000010000010011 %
0$
b0 #
b1 "
bx !
$end
#5
0'
#10
1'
#15
0'
0(
#20
1*
0M
1L
0P
b100 T
b100 -
b11111111111111111111111111111100 F
b0 "
b0 4
b0 V
b11100 /
b0 R
b0 D
b100000000000000000000000000001000 E
b100 )
b100 3
b0 &
b0 G
b0 U
b0 ,
b1111111 B
b10 C
b101 5
b11100 0
b1000 2
b11111111111101000010011111111100 N
b11111111111111111111111111100100 Q
b11111111111111111111111111100101 I
b11111111111111111111111111111100 O
b11111111110001000010000000000000 H
19
0@
b11111111110001000010001010000011 %
b11111111110001000010001010000011 A
b11111111110001000010001010000011 Z
b11111111111101000010100000000000 J
b1000 K
b100 #
b100 S
b100 Y
1'
#25
0'
#30
b100000000000000000000000000000 6
b100 .
0L
b100 E
b1 ,
b100 D
b0 F
b1 "
b1 4
b1 V
b0 /
b0 !
b0 +
b0 W
b0 1
b100 &
b100 G
b100 U
b0 B
b110 5
b0 0
b1000010000000000000 N
b110 Q
b110 I
b0 O
b1000010000000000000 H
b1000010001100000011 %
b1000010001100000011 A
b1000010001100000011 Z
b1000010000000001000 J
b1100 K
b1000 #
b1000 S
b1000 Y
1'
#35
0'
#40
b10000000000000000000000000000000 6
b1 .
b1 T
b1 -
b1 R
b1 D
b1 E
b1 )
b1 3
b110 &
b110 G
b110 U
b1 ,
b0 C
b111 5
b101 0
b110 2
b110000100000000100 N
b100000000110 Q
b111 I
b101 O
b10100110000000000000000 H
09
1?
b10100110000001110110011 %
b10100110000001110110011 A
b10100110000001110110011 Z
b110000100000010000 J
b10000 K
b1100 #
b1100 S
b1100 Y
1'
#45
0'
#50
b10000000000000000000000000000000 6
b1 T
0M
b1 ,
b1 .
0L
b0 "
b0 4
b0 V
b1 E
b1 R
b1 &
b1 G
b1 U
b1 D
b0 F
b101 5
b0 0
b110000000000000000 N
b100000000100 Q
b101 I
b0 O
b110000000000000000 H
1@
0?
b110000001010010011 %
b110000001010010011 A
b110000001010010011 Z
b110000000000010000 J
b10100 K
b10000 #
b10000 S
b10000 Y
1'
#55
0'
#60
b110 5
b111 2
b111000000000000000 N
b110 Q
b110 I
b111000000000000000 H
b111000001100010011 %
b111000001100010011 A
b111000001100010011 Z
b111000000000010100 J
b11000 K
b10100 #
b10100 S
b10100 Y
1'
#65
0'
#70
b1000 ,
b0 6
1P
b0 .
b1000 R
b0 T
b100 -
b100 F
bx "
bx 4
bx V
b100 /
bx !
bx +
bx W
bx 1
b1000 D
b0 E
b100 )
b100 3
b1000 &
b1000 G
b1000 U
b1000 5
b100 0
b1000 2
b1000000000000000100 N
b1000 Q
b1000 I
b100 O
b10001000000000000000000 H
b10001000000010000010011 %
b10001000000010000010011 A
b10001000000010000010011 Z
b1000000000000011100 J
b11100 K
b11000 #
b11000 S
b11000 Y
1'
#75
b1100 ,
0P
b1100 R
b1000 T
b1000 -
b1100 &
b1100 G
b1100 U
b1100 D
b100 E
b1000 )
b1000 3
0'
#80
0M
0L
0*
b1 E
b100000 ,
b1111 D
b111 F
b111 /
b0 R
b1 !
b1 +
b1 W
b1 1
b1000 &
b1000 G
b1000 U
b10 C
b0 5
b111 0
b1000010100000000110 N
b0 Q
b0 I
b111 O
b11101000010000000000000 H
1$
17
0@
b11101000010000000100011 %
b11101000010000000100011 A
b11101000010000000100011 Z
b1000010100000100010 J
b100000 K
b11100 #
b11100 S
b11100 Y
1'
#85
0'
#90
bx 6
xM
bx .
xL
xP
bx T
bx -
b11111111111111111111111111101100 F
1*
b100100 ,
b1101 /
bx0xx00 R
bx !
bx +
bx W
bx 1
bx D
bx E
bx )
bx 3
bx &
bx G
bx U
b1111111 B
b111 C
b1101 0
b11111 2
b11111111111111111111111111101100 N
b11111111111111111111011111100000 Q
b11111111111111111111111111100000 I
b11111111111111111111111111101101 O
b11111110110111111111000000000000 H
0$
07
1<
b11111110110111111111000001101111 %
b11111110110111111111000001101111 A
b11111110110111111111000001101111 Z
bx "
bx 4
bx V
b1100 J
b100100 K
b100000 #
b100000 S
b100000 Y
1'
#95
0'
#100
b0 6
0M
b0 .
0L
1P
b10 D
b1 "
b1 4
b1 V
b0 T
b1 -
1*
b10 ,
b10 R
b1 !
b1 +
b1 W
b1 1
b110 &
b110 G
b110 U
b0 E
b1 )
b1 3
b1 /
b1 F
b0 B
b0 C
b111 5
b101 0
b110 2
b110000100000000100 N
b100000000110 Q
b111 I
b101 O
b10100110000000000000000 H
0<
1?
b10100110000001110110011 %
b10100110000001110110011 A
b10100110000001110110011 Z
b110000100000010000 J
b10000 K
b1100 #
b1100 S
b1100 Y
1'
#105
0'
#110
b10000000000000000000000000000000 6
b1 T
b1 .
0M
b1 ,
0L
0P
b0 "
b0 4
b0 V
b1 E
b1 R
b0 !
b0 +
b0 W
b0 1
b1 &
b1 G
b1 U
b0 /
b1 D
b0 F
b101 5
b0 0
b110000000000000000 N
b100000000100 Q
b101 I
b0 O
b110000000000000000 H
1@
0?
b110000001010010011 %
b110000001010010011 A
b110000001010010011 Z
b110000000000010000 J
b10100 K
b10000 #
b10000 S
b10000 Y
1'
#115
0'
#120
b10 ,
b1000000000000000000000000000000 6
b10 .
b10 R
b10 T
b10 -
b10 &
b10 G
b10 U
b10 D
b10 E
b10 )
b10 3
b110 5
b111 2
b111000000000000000 N
b110 Q
b110 I
b111000000000000000 H
b111000001100010011 %
b111000001100010011 A
b111000001100010011 Z
b111000000000010100 J
b11000 K
b10100 #
b10100 S
b10100 Y
1'
#125
0'
#130
b1100 ,
b0 6
b0 .
b1100 R
b0 T
b1000 -
b100 F
bx "
bx 4
bx V
b100 /
bx !
bx +
bx W
bx 1
b1100 D
b100 E
b1000 )
b1000 3
b1100 &
b1100 G
b1100 U
b1000 5
b100 0
b1000 2
b1000000000000000100 N
b1000 Q
b1000 I
b100 O
b10001000000000000000000 H
b10001000000010000010011 %
b10001000000010000010011 A
b10001000000010000010011 Z
b1000000000000011100 J
b11100 K
b11000 #
b11000 S
b11000 Y
1'
#135
b10000 ,
b10000 R
b1100 T
b1100 -
b10000 &
b10000 G
b10000 U
b10000 D
b1000 E
b1100 )
b1100 3
0'
#140
0M
0L
0*
b101 E
b100000 ,
b10011 D
b111 F
b111 /
b0 R
b10 !
b10 +
b10 W
b10 1
b1100 &
b1100 G
b1100 U
b10 C
b0 5
b111 0
b1000010100000000110 N
b0 Q
b0 I
b111 O
b11101000010000000000000 H
1$
17
0@
b11101000010000000100011 %
b11101000010000000100011 A
b11101000010000000100011 Z
b1000010100000100010 J
b100000 K
b11100 #
b11100 S
b11100 Y
1'
#145
0'
#150
bx 6
xM
bx .
xL
xP
bx T
bx -
b11111111111111111111111111101100 F
1*
b100100 ,
b1101 /
bx0xx00 R
bx !
bx +
bx W
bx 1
bx D
bx E
bx )
bx 3
bx &
bx G
bx U
b1111111 B
b111 C
b1101 0
b11111 2
b11111111111111111111111111101100 N
b11111111111111111111011111100000 Q
b11111111111111111111111111100000 I
b11111111111111111111111111101101 O
b11111110110111111111000000000000 H
0$
07
1<
b11111110110111111111000001101111 %
b11111110110111111111000001101111 A
b11111110110111111111000001101111 Z
bx "
bx 4
bx V
b1100 J
b100100 K
b100000 #
b100000 S
b100000 Y
1'
#155
0'
#160
b10000000000000000000000000000000 6
0M
b1 .
0L
0P
b11 D
b1 "
b1 4
b1 V
b1 T
b10 -
1*
b11 ,
b11 R
b1 !
b1 +
b1 W
b1 1
b111 &
b111 G
b111 U
b1 E
b10 )
b10 3
b1 /
b1 F
b0 B
b0 C
b111 5
b101 0
b110 2
b110000100000000100 N
b100000000110 Q
b111 I
b101 O
b10100110000000000000000 H
0<
1?
b10100110000001110110011 %
b10100110000001110110011 A
b10100110000001110110011 Z
b110000100000010000 J
b10000 K
b1100 #
b1100 S
b1100 Y
1'
#165
0'
#170
b1000000000000000000000000000000 6
b10 T
0M
b10 ,
b10 .
0L
b0 "
b0 4
b0 V
b10 E
b10 R
b0 !
b0 +
b0 W
b0 1
b10 &
b10 G
b10 U
b0 /
b10 D
b0 F
b101 5
b0 0
b110000000000000000 N
b100000000100 Q
b101 I
b0 O
b110000000000000000 H
1@
0?
b110000001010010011 %
b110000001010010011 A
b110000001010010011 Z
b110000000000010000 J
b10100 K
b10000 #
b10000 S
b10000 Y
1'
#175
0'
#180
b11 ,
b11000000000000000000000000000000 6
b11 .
b11 R
b11 T
b11 -
b11 &
b11 G
b11 U
b11 D
b11 E
b11 )
b11 3
b110 5
b111 2
b111000000000000000 N
b110 Q
b110 I
b111000000000000000 H
b111000001100010011 %
b111000001100010011 A
b111000001100010011 Z
b111000000000010100 J
b11000 K
b10100 #
b10100 S
b10100 Y
1'
#185
0'
#190
b10000 ,
b0 6
b0 .
b10000 R
b0 T
b1100 -
b100 F
bx "
bx 4
bx V
b100 /
bx !
bx +
bx W
bx 1
b10000 D
b1000 E
b1100 )
b1100 3
b10000 &
b10000 G
b10000 U
b1000 5
b100 0
b1000 2
b1000000000000000100 N
b1000 Q
b1000 I
b100 O
b10001000000000000000000 H
b10001000000010000010011 %
b10001000000010000010011 A
b10001000000010000010011 Z
b1000000000000011100 J
b11100 K
b11000 #
b11000 S
b11000 Y
1'
#195
b10100 ,
b10000000000000000000000000000000 6
b1 .
b10100 R
b1 T
b10000 -
b10100 &
b10100 G
b10100 U
b10100 D
b1100 E
b10000 )
b10000 3
0'
#200
0M
0L
b0 6
b0 T
0*
b0 .
b1001 E
b100000 ,
b10111 D
b111 F
b111 /
b0 R
b11 !
b11 +
b11 W
b11 1
b10000 &
b10000 G
b10000 U
b10 C
b0 5
b111 0
b1000010100000000110 N
b0 Q
b0 I
b111 O
b11101000010000000000000 H
1$
17
0@
b11101000010000000100011 %
b11101000010000000100011 A
b11101000010000000100011 Z
b1000010100000100010 J
b100000 K
b11100 #
b11100 S
b11100 Y
1'
#205
0'
#210
bx 6
xM
bx .
xL
xP
bx T
bx -
b11111111111111111111111111101100 F
1*
b100100 ,
b1101 /
bx0xx00 R
bx !
bx +
bx W
bx 1
bx D
bx E
bx )
bx 3
bx &
bx G
bx U
b1111111 B
b111 C
b1101 0
b11111 2
b11111111111111111111111111101100 N
b11111111111111111111011111100000 Q
b11111111111111111111111111100000 I
b11111111111111111111111111101101 O
b11111110110111111111000000000000 H
0$
07
1<
b11111110110111111111000001101111 %
b11111110110111111111000001101111 A
b11111110110111111111000001101111 Z
bx "
bx 4
bx V
b1100 J
b100100 K
b100000 #
b100000 S
b100000 Y
1'
#215
0'
#220
b0 6
0M
b0 .
0L
0P
b101 D
b1 "
b1 4
b1 V
b0 T
b11 -
1*
b101 ,
b101 R
b10 !
b10 +
b10 W
b10 1
b1000 &
b1000 G
b1000 U
b1 E
b11 )
b11 3
b10 /
b10 F
b0 B
b0 C
b111 5
b101 0
b110 2
b110000100000000100 N
b100000000110 Q
b111 I
b101 O
b10100110000000000000000 H
0<
1?
b10100110000001110110011 %
b10100110000001110110011 A
b10100110000001110110011 Z
b110000100000010000 J
b10000 K
b1100 #
b1100 S
b1100 Y
1'
#225
0'
#230
b11000000000000000000000000000000 6
b11 T
b11 .
0M
b11 ,
0L
b0 "
b0 4
b0 V
b11 E
b11 R
b0 !
b0 +
b0 W
b0 1
b11 &
b11 G
b11 U
b0 /
b11 D
b0 F
b101 5
b0 0
b110000000000000000 N
b100000000100 Q
b101 I
b0 O
b110000000000000000 H
1@
0?
b110000001010010011 %
b110000001010010011 A
b110000001010010011 Z
b110000000000010000 J
b10100 K
b10000 #
b10000 S
b10000 Y
1'
#235
0'
#240
b101 ,
b10100000000000000000000000000000 6
b101 .
b1 "
b1 4
b1 V
b101 R
b101 T
b101 -
b101 &
b101 G
b101 U
b101 D
b101 E
b101 )
b101 3
b110 5
b111 2
b111000000000000000 N
b110 Q
b110 I
b111000000000000000 H
b111000001100010011 %
b111000001100010011 A
b111000001100010011 Z
b111000000000010100 J
b11000 K
b10100 #
b10100 S
b10100 Y
1'
#245
0'
#250
b10100 ,
b10000000000000000000000000000000 6
b1 .
b10100 R
b1 T
b10000 -
b100 F
bx "
bx 4
bx V
b100 /
bx !
bx +
bx W
bx 1
b10100 D
b1100 E
b10000 )
b10000 3
b10100 &
b10100 G
b10100 U
b1000 5
b100 0
b1000 2
b1000000000000000100 N
b1000 Q
b1000 I
b100 O
b10001000000000000000000 H
b10001000000010000010011 %
b10001000000010000010011 A
b10001000000010000010011 Z
b1000000000000011100 J
b11100 K
b11000 #
b11000 S
b11000 Y
1'
#255
b11000 ,
b11000 R
b10100 T
b10100 -
b11000 &
b11000 G
b11000 U
b11000 D
b10000 E
b10100 )
b10100 3
0'
#260
0M
0L
b0 6
b0 T
0*
b0 .
b1101 E
b100000 ,
b11011 D
b111 F
b111 /
b0 R
b101 !
b101 +
b101 W
b101 1
b10100 &
b10100 G
b10100 U
b10 C
b0 5
b111 0
b1000010100000000110 N
b0 Q
b0 I
b111 O
b11101000010000000000000 H
1$
17
0@
b11101000010000000100011 %
b11101000010000000100011 A
b11101000010000000100011 Z
b1000010100000100010 J
b100000 K
b11100 #
b11100 S
b11100 Y
1'
#265
0'
#270
bx 6
xM
bx .
xL
xP
bx T
bx -
b11111111111111111111111111101100 F
1*
b100100 ,
b1101 /
bx0xx00 R
bx !
bx +
bx W
bx 1
bx D
bx E
bx )
bx 3
bx &
bx G
bx U
b1111111 B
b111 C
b1101 0
b11111 2
b11111111111111111111111111101100 N
b11111111111111111111011111100000 Q
b11111111111111111111111111100000 I
b11111111111111111111111111101101 O
b11111110110111111111000000000000 H
0$
07
1<
b11111110110111111111000001101111 %
b11111110110111111111000001101111 A
b11111110110111111111000001101111 Z
bx "
bx 4
bx V
b1100 J
b100100 K
b100000 #
b100000 S
b100000 Y
1'
#275
0'
#280
b0 6
0M
b0 .
0L
0P
b1000 D
b1 "
b1 4
b1 V
b0 T
b101 -
1*
b1000 ,
b1000 R
b11 !
b11 +
b11 W
b11 1
b1010 &
b1010 G
b1010 U
b10 E
b101 )
b101 3
b11 /
b11 F
b0 B
b0 C
b111 5
b101 0
b110 2
b110000100000000100 N
b100000000110 Q
b111 I
b101 O
b10100110000000000000000 H
0<
1?
b10100110000001110110011 %
b10100110000001110110011 A
b10100110000001110110011 Z
b110000100000010000 J
b10000 K
b1100 #
b1100 S
b1100 Y
1'
#285
0'
#290
b10100000000000000000000000000000 6
b101 T
b101 .
0M
b101 ,
0L
b101 E
b101 R
b0 !
b0 +
b0 W
b0 1
b101 &
b101 G
b101 U
b0 /
b101 D
b0 F
b101 5
b0 0
b110000000000000000 N
b100000000100 Q
b101 I
b0 O
b110000000000000000 H
1@
0?
b110000001010010011 %
b110000001010010011 A
b110000001010010011 Z
b110000000000010000 J
b10100 K
b10000 #
b10000 S
b10000 Y
1'
#295
0'
#300
b1000 ,
b10000000000000000000000000000 6
b1000 .
b1000 R
b1000 T
b1000 -
b1000 &
b1000 G
b1000 U
b1000 D
b1000 E
b1000 )
b1000 3
b110 5
b111 2
b111000000000000000 N
b110 Q
b110 I
b111000000000000000 H
b111000001100010011 %
b111000001100010011 A
b111000001100010011 Z
b111000000000010100 J
b11000 K
b10100 #
b10100 S
b10100 Y
1'
#305
0'
#310
b11000 ,
b10000000000000000000000000000000 6
b1 .
b11000 R
b1 T
b10100 -
b100 F
bx "
bx 4
bx V
b100 /
bx !
bx +
bx W
bx 1
b11000 D
b10000 E
b10100 )
b10100 3
b11000 &
b11000 G
b11000 U
b1000 5
b100 0
b1000 2
b1000000000000000100 N
b1000 Q
b1000 I
b100 O
b10001000000000000000000 H
b10001000000010000010011 %
b10001000000010000010011 A
b10001000000010000010011 Z
b1000000000000011100 J
b11100 K
b11000 #
b11000 S
b11000 Y
1'
#315
b11100 ,
b11100 R
b11000 T
b11000 -
b11100 &
b11100 G
b11100 U
b11100 D
b10100 E
b11000 )
b11000 3
0'
#320
0M
0L
b0 6
b0 T
0*
b0 .
b10001 E
b100000 ,
b11111 D
b111 F
b111 /
b0 R
b1000 !
b1000 +
b1000 W
b1000 1
b11000 &
b11000 G
b11000 U
b10 C
b0 5
b111 0
b1000010100000000110 N
b0 Q
b0 I
b111 O
b11101000010000000000000 H
1$
17
0@
b11101000010000000100011 %
b11101000010000000100011 A
b11101000010000000100011 Z
b1000010100000100010 J
b100000 K
b11100 #
b11100 S
b11100 Y
1'
#325
0'
#330
bx 6
xM
bx .
xL
xP
bx T
bx -
b11111111111111111111111111101100 F
1*
b100100 ,
b1101 /
bx0xx00 R
bx !
bx +
bx W
bx 1
bx D
bx E
bx )
bx 3
bx &
bx G
bx U
b1111111 B
b111 C
b1101 0
b11111 2
b11111111111111111111111111101100 N
b11111111111111111111011111100000 Q
b11111111111111111111111111100000 I
b11111111111111111111111111101101 O
b11111110110111111111000000000000 H
0$
07
1<
b11111110110111111111000001101111 %
b11111110110111111111000001101111 A
b11111110110111111111000001101111 Z
bx "
bx 4
bx V
b1100 J
b100100 K
b100000 #
b100000 S
b100000 Y
1'
#335
0'
#340
b0 6
0M
b0 .
0L
0P
b1101 D
b10 "
b10 4
b10 V
b0 T
b1000 -
1*
b1101 ,
b1101 R
b101 !
b101 +
b101 W
b101 1
b1101 &
b1101 G
b1101 U
b11 E
b1000 )
b1000 3
b101 /
b101 F
b0 B
b0 C
b111 5
b101 0
b110 2
b110000100000000100 N
b100000000110 Q
b111 I
b101 O
b10100110000000000000000 H
0<
1?
b10100110000001110110011 %
b10100110000001110110011 A
b10100110000001110110011 Z
b110000100000010000 J
b10000 K
b1100 #
b1100 S
b1100 Y
1'
#345
0'
#350
b10000000000000000000000000000 6
b1000 T
b1000 .
0M
b1000 ,
0L
b1 "
b1 4
b1 V
b1000 E
b1000 R
b0 !
b0 +
b0 W
b0 1
b1000 &
b1000 G
b1000 U
b0 /
b1000 D
b0 F
b101 5
b0 0
b110000000000000000 N
b100000000100 Q
b101 I
b0 O
b110000000000000000 H
1@
0?
b110000001010010011 %
b110000001010010011 A
b110000001010010011 Z
b110000000000010000 J
b10100 K
b10000 #
b10000 S
b10000 Y
1'
#355
0'
#360
b1101 ,
b10110000000000000000000000000000 6
b1101 .
b10 "
b10 4
b10 V
b1101 R
b1101 T
b1101 -
b1101 &
b1101 G
b1101 U
b1101 D
b1101 E
b1101 )
b1101 3
b110 5
b111 2
b111000000000000000 N
b110 Q
b110 I
b111000000000000000 H
b111000001100010011 %
b111000001100010011 A
b111000001100010011 Z
b111000000000010100 J
b11000 K
b10100 #
b10100 S
b10100 Y
1'
#365
0'
#370
b11100 ,
b10000000000000000000000000000000 6
b1 .
b11100 R
b1 T
b11000 -
b100 F
bx "
bx 4
bx V
b100 /
bx !
bx +
bx W
bx 1
b11100 D
b10100 E
b11000 )
b11000 3
b11100 &
b11100 G
b11100 U
b1000 5
b100 0
b1000 2
b1000000000000000100 N
b1000 Q
b1000 I
b100 O
b10001000000000000000000 H
b10001000000010000010011 %
b10001000000010000010011 A
b10001000000010000010011 Z
b1000000000000011100 J
b11100 K
b11000 #
b11000 S
b11000 Y
1'
#375
b100000 ,
b100000 R
b11100 T
b11100 -
b100000 &
b100000 G
b100000 U
b100000 D
b11000 E
b11100 )
b11100 3
0'
#380
0M
0L
b0 6
b0 T
0*
b0 .
b10101 E
b100011 D
b111 F
b111 /
b0 R
b1101 !
b1101 +
b1101 W
b1101 1
b11100 &
b11100 G
b11100 U
b10 C
b0 5
b111 0
b1000010100000000110 N
b0 Q
b0 I
b111 O
b11101000010000000000000 H
1$
17
0@
b11101000010000000100011 %
b11101000010000000100011 A
b11101000010000000100011 Z
b1000010100000100010 J
b100000 K
b11100 #
b11100 S
b11100 Y
1'
#385
0'
#390
bx 6
xM
bx .
xL
xP
bx T
bx -
b11111111111111111111111111101100 F
1*
b100100 ,
b1101 /
bx0xx00 R
bx !
bx +
bx W
bx 1
bx D
bx E
bx )
bx 3
bx &
bx G
bx U
b1111111 B
b111 C
b1101 0
b11111 2
b11111111111111111111111111101100 N
b11111111111111111111011111100000 Q
b11111111111111111111111111100000 I
b11111111111111111111111111101101 O
b11111110110111111111000000000000 H
0$
07
1<
b11111110110111111111000001101111 %
b11111110110111111111000001101111 A
b11111110110111111111000001101111 Z
bx "
bx 4
bx V
b1100 J
b100100 K
b100000 #
b100000 S
b100000 Y
1'
#395
0'
#400
b0 6
0M
b0 .
0L
0P
b10101 D
b11 "
b11 4
b11 V
b0 T
b1101 -
1*
b10101 ,
b10101 R
b1000 !
b1000 +
b1000 W
b1000 1
b10010 &
b10010 G
b10010 U
b101 E
b1101 )
b1101 3
b1000 /
b1000 F
b0 B
b0 C
b111 5
b101 0
b110 2
b110000100000000100 N
b100000000110 Q
b111 I
b101 O
b10100110000000000000000 H
0<
1?
b10100110000001110110011 %
b10100110000001110110011 A
b10100110000001110110011 Z
b110000100000010000 J
b10000 K
b1100 #
b1100 S
b1100 Y
1'
#405
0'
#410
b10110000000000000000000000000000 6
b1101 T
b1101 .
0M
b1101 ,
0L
b10 "
b10 4
b10 V
b1101 E
b1101 R
b0 !
b0 +
b0 W
b0 1
b1101 &
b1101 G
b1101 U
b0 /
b1101 D
b0 F
b101 5
b0 0
b110000000000000000 N
b100000000100 Q
b101 I
b0 O
b110000000000000000 H
1@
0?
b110000001010010011 %
b110000001010010011 A
b110000001010010011 Z
b110000000000010000 J
b10100 K
b10000 #
b10000 S
b10000 Y
1'
#415
0'
#420
b10101 ,
b10101000000000000000000000000000 6
b10101 .
b101 "
b101 4
b101 V
b10101 R
b10101 T
b10101 -
b10101 &
b10101 G
b10101 U
b10101 D
b10101 E
b10101 )
b10101 3
b110 5
b111 2
b111000000000000000 N
b110 Q
b110 I
b111000000000000000 H
b111000001100010011 %
b111000001100010011 A
b111000001100010011 Z
b111000000000010100 J
b11000 K
b10100 #
b10100 S
b10100 Y
1'
#425
0'
#430
b100000 ,
b10000000000000000000000000000000 6
b1 .
b100000 R
b1 T
b11100 -
b100 F
bx "
bx 4
bx V
b100 /
bx !
bx +
bx W
bx 1
b100000 D
b11000 E
b11100 )
b11100 3
b100000 &
b100000 G
b100000 U
b1000 5
b100 0
b1000 2
b1000000000000000100 N
b1000 Q
b1000 I
b100 O
b10001000000000000000000 H
b10001000000010000010011 %
b10001000000010000010011 A
b10001000000010000010011 Z
b1000000000000011100 J
b11100 K
b11000 #
b11000 S
b11000 Y
1'
#435
b100100 ,
b1000000000000000000000000000000 6
b10 .
b100100 R
b10 T
b100000 -
b100100 &
b100100 G
b100100 U
b100100 D
b11100 E
b100000 )
b100000 3
0'
#440
0M
0L
b0 6
b0 T
0*
b0 .
b11001 E
b100000 ,
b100111 D
b111 F
b111 /
b0 R
b10101 !
b10101 +
b10101 W
b10101 1
b100000 &
b100000 G
b100000 U
b10 C
b0 5
b111 0
b1000010100000000110 N
b0 Q
b0 I
b111 O
b11101000010000000000000 H
1$
17
0@
b11101000010000000100011 %
b11101000010000000100011 A
b11101000010000000100011 Z
b1000010100000100010 J
b100000 K
b11100 #
b11100 S
b11100 Y
1'
#445
0'
#450
bx 6
xM
bx .
xL
xP
bx T
bx -
b11111111111111111111111111101100 F
1*
b100100 ,
b1101 /
bx0xx00 R
bx !
bx +
bx W
bx 1
bx D
bx E
bx )
bx 3
bx &
bx G
bx U
b1111111 B
b111 C
b1101 0
b11111 2
b11111111111111111111111111101100 N
b11111111111111111111011111100000 Q
b11111111111111111111111111100000 I
b11111111111111111111111111101101 O
b11111110110111111111000000000000 H
0$
07
1<
b11111110110111111111000001101111 %
b11111110110111111111000001101111 A
b11111110110111111111000001101111 Z
bx "
bx 4
bx V
b1100 J
b100100 K
b100000 #
b100000 S
b100000 Y
1'
#455
0'
#460
b0 6
0M
b0 .
0L
0P
b100010 D
b1000 "
b1000 4
b1000 V
b0 T
b10101 -
1*
b100010 ,
b100010 R
b1101 !
b1101 +
b1101 W
b1101 1
b11010 &
b11010 G
b11010 U
b1000 E
b10101 )
b10101 3
b1101 /
b1101 F
b0 B
b0 C
b111 5
b101 0
b110 2
b110000100000000100 N
b100000000110 Q
b111 I
b101 O
b10100110000000000000000 H
0<
1?
b10100110000001110110011 %
b10100110000001110110011 A
b10100110000001110110011 Z
b110000100000010000 J
b10000 K
b1100 #
b1100 S
b1100 Y
1'
#465
0'
#470
b10101000000000000000000000000000 6
b10101 T
0M
b10101 ,
b10101 .
0L
b101 "
b101 4
b101 V
b10101 E
b10101 R
b0 !
b0 +
b0 W
b0 1
b10101 &
b10101 G
b10101 U
b0 /
b10101 D
b0 F
b101 5
b0 0
b110000000000000000 N
b100000000100 Q
b101 I
b0 O
b110000000000000000 H
1@
0?
b110000001010010011 %
b110000001010010011 A
b110000001010010011 Z
b110000000000010000 J
b10100 K
b10000 #
b10000 S
b10000 Y
1'
#475
0'
#480
b100010 ,
b1000100000000000000000000000000 6
b100010 .
b10101 "
b10101 4
b10101 V
b100010 R
b100010 T
b100010 -
b100010 &
b100010 G
b100010 U
b100010 D
b100010 E
b100010 )
b100010 3
b110 5
b111 2
b111000000000000000 N
b110 Q
b110 I
b111000000000000000 H
b111000001100010011 %
b111000001100010011 A
b111000001100010011 Z
b111000000000010100 J
b11000 K
b10100 #
b10100 S
b10100 Y
1'
#485
0'
#490
b100100 ,
b1000000000000000000000000000000 6
b10 .
b100100 R
b10 T
b100000 -
b100 F
bx "
bx 4
bx V
b100 /
bx !
bx +
bx W
bx 1
b100100 D
b11100 E
b100000 )
b100000 3
b100100 &
b100100 G
b100100 U
b1000 5
b100 0
b1000 2
b1000000000000000100 N
b1000 Q
b1000 I
b100 O
b10001000000000000000000 H
b10001000000010000010011 %
b10001000000010000010011 A
b10001000000010000010011 Z
b1000000000000011100 J
b11100 K
b11000 #
b11000 S
b11000 Y
1'
#495
b101000 ,
b101000 R
b100100 T
b100100 -
b101000 &
b101000 G
b101000 U
b101000 D
b100000 E
b100100 )
b100100 3
0'
